[
  {
    "nom": "Italy",
    "primary_color": "#3399FF",
    "secondary_color": "#FFFFFF",
    "classementFIFA": "9",
    "code": "it",
    "hat": "4",
    "playoff": null,
    "diff": 0,
    "points":0
  },
  {
    "nom": "Germany",
    "primary_color": "#FFFFFF",
    "secondary_color": "#18222F",
    "classementFIFA": "16",
    "code": "de",
    "hat": "1",
    "playoff": null,
    "diff": 0,
    "points": 0
  },
  {
    "nom": "Portugal",
    "primary_color": "#E35169",
    "secondary_color": "#2ECDA7",
    "classementFIFA": "6",
    "code": "pt",
    "hat": "1",
    "playoff": null,
    "diff": 0,
    "points": 0
  },
  {
    "nom": "Spain",
    "primary_color": "#E35169",
    "secondary_color": "#FFC23B",
    "classementFIFA": "8",
    "code": "es",
    "hat": "1",
    "playoff": null,
    "diff": 0,
    "points": 0
  },
  {
    "nom": "Belgium",
    "primary_color": "#E35169",
    "secondary_color": "#18222F",
    "classementFIFA": "5",
    "code": "be",
    "hat": "1",
    "playoff": null,
    "diff": 0,
    "points": 0
  },
  {
    "nom": "England",
    "primary_color": "#FFFFFF",
    "secondary_color": "#E35169",
    "classementFIFA": "4",
    "code": "gb-eng",
    "hat": "1",
    "playoff": null,
    "diff": 0,
    "points": 0
  },
  {
    "nom": "Hungary",
    "primary_color": "#E35169",
    "secondary_color": "#2ECDA7",
    "classementFIFA": "30",
    "code": "hu",
    "hat": "2",
    "playoff": null,
    "diff": 0,
    "points": 0
  },
  {
    "nom": "Turkey",
    "primary_color": "#E35169",
    "secondary_color": "#FFFFFF",
    "classementFIFA": "38",
    "code": "tr",
    "hat": "2",
    "playoff": null,
    "diff": 0,
    "points": 0
  },
  {
    "nom": "Romania",
    "primary_color": "#FFC23B",
    "secondary_color": "#005FFF",
    "classementFIFA": "48",
    "code": "ro",
    "hat": "2",
    "playoff": null,
    "diff": 0,
    "points": 0
  },
  {
    "nom": "Denmark",
    "primary_color": "#E35169",
    "secondary_color": "#FFFFFF",
    "classementFIFA": "19",
    "code": "dk",
    "hat": "2",
    "playoff": null,
    "diff": 0,
    "points": 0
  },
  {
    "nom": "Albania",
    "primary_color": "#E35169",
    "secondary_color": "#18222F",
    "classementFIFA": "59",
    "code": "al",
    "hat": "2",
    "playoff": null,
    "diff": 0,
    "points": 0
  },
  {
    "nom": "Austria",
    "primary_color": "#FFFFFF",
    "secondary_color": "#18222F",
    "classementFIFA": "25",
    "code": "at",
    "hat": "2",
    "playoff": null,
    "diff": 0,
    "points": 0
  },
  {
    "nom": "Netherlands",
    "primary_color": "#FFA439",
    "secondary_color": "#FFFFFF",
    "classementFIFA": "7",
    "code": "nl",
    "hat": "3",
    "playoff": null,
    "diff": 0,
    "points": 0
  },
  {
    "nom": "Scotland",
    "primary_color": "#000080",
    "secondary_color": "#FFFFFF",
    "classementFIFA": "34",
    "code": "gb-sct",
    "hat": "3",
    "playoff": null,
    "diff": 0,
    "points": 0
  },
  {
    "nom": "Croatia",
    "primary_color": "#FFFFFF",
    "secondary_color": "#E35169",
    "classementFIFA": "10",
    "code": "hr",
    "hat": "3",
    "playoff": null,
    "diff": 0,
    "points": 0
  },
  {
    "nom": "Slovenia",
    "primary_color": "#FFFFFF",
    "secondary_color": "#E35169",
    "classementFIFA": "54",
    "code": "si",
    "hat": "3",
    "playoff": null,
    "diff": 0,
    "points": 0
  },
  {
    "nom": "Slovakia",
    "primary_color": "#FFFFFF",
    "secondary_color": "#E35169",
    "classementFIFA": "50",
    "code": "sk",
    "hat": "3",
    "playoff": null,
    "diff": 0,
    "points": 0
  },
  {
    "nom": "Czech",
    "primary_color": "#E35169",
    "secondary_color": "#0051FF",
    "classementFIFA": "41",
    "code": "cz",
    "hat": "3",
    "playoff": null,
    "diff": 0,
    "points": 0
  },
  {
    "nom": "Serbia",
    "primary_color": "#E35169",
    "secondary_color": "#0026FF",
    "classementFIFA": "29",
    "code": "rs",
    "hat": "4",
    "playoff": null,
    "diff": 0,
    "points": 0
  },
  {
    "nom": "Switzerland",
    "primary_color": "#E35169",
    "secondary_color": "#FFFFFF",
    "classementFIFA": "14",
    "code": "ch",
    "hat": "4",
    "playoff": null,
    "diff": 0,
    "points": 0
  },
  {
    "nom": "Wales",
    "primary_color": "#FFFFFF",
    "secondary_color": "#09BB75",
    "classementFIFA": "28",
    "code": "gb-wls",
    "hat": "4",
    "playoff": "A",
    "diff": 0,
    "points": 0
  },
  {
    "nom": "Finland",
    "primary_color": "#FFFFFF",
    "secondary_color": "#3399FF",
    "classementFIFA": "62",
    "code": "fi",
    "hat": "4",
    "playoff": "A",
    "diff": 0,
    "points": 0
  },
  {
    "nom": "Poland",
    "primary_color": "#FFFFFF",
    "secondary_color": "#E35169",
    "classementFIFA": "31",
    "code": "pl",
    "hat": "4",
    "playoff": "A",
    "diff": 0,
    "points": 0
  },
  {
    "nom": "Estonia",
    "primary_color": "#FFFFFF",
    "secondary_color": "#3399FF",
    "classementFIFA": "118",
    "code": "ee",
    "hat": "4",
    "playoff": "A",
    "diff": 0,
    "points": 0
  },
  {
    "nom": "Bosnia Herzegovina",
    "primary_color": "#FFC23B",
    "secondary_color": "#3399FF",
    "classementFIFA": "63",
    "code": "ba",
    "hat": "4",
    "playoff": "B",
    "diff": 0,
    "points": 0
  },
  {
    "nom": "Ukraine",
    "primary_color": "#FFC23B",
    "secondary_color": "#3399FF",
    "classementFIFA": "22",
    "code": "ua",
    "hat": "4",
    "playoff": "B",
    "diff": 0,
    "points": 0
  },
  {
    "nom": "Israël",
    "primary_color": "#FFFFFF",
    "secondary_color": "#3399FF",
    "classementFIFA": "71",
    "code": "il",
    "hat": "4",
    "playoff": "B",
    "diff": 0,
    "points": 0
  },
  {
    "nom": "Island",
    "primary_color": "#272CFF",
    "secondary_color": "#E35169",
    "classementFIFA": "67",
    "code": "is",
    "hat": "4",
    "playoff": "B",
    "diff": 0,
    "points": 0
  },
  {
    "nom": "Georgia",
    "primary_color": "#FFFFFF",
    "secondary_color": "#E35169",
    "classementFIFA": "76",
    "code": "ge",
    "hat": "4",
    "playoff": "C",
    "diff": 0,
    "points": 0
  },
  {
    "nom": "Luxembourg",
    "primary_color": "#E35169",
    "secondary_color": "#3399FF",
    "classementFIFA": "87",
    "code": "lu",
    "hat": "4",
    "playoff": "C",
    "diff": 0,
    "points": 0
  },
  {
    "nom": "Greece",
    "primary_color": "#3399FF",
    "secondary_color": "#FFFFFF",
    "classementFIFA": "51",
    "code": "gr",
    "hat": "4",
    "playoff": "C",
    "diff": 0,
    "points": 0
  },
  {
    "nom": "Kazakhstan",
    "primary_color": "#FFC23B",
    "secondary_color": "#3399FF",
    "classementFIFA": "98",
    "code": "kz",
    "hat": "4",
    "playoff": "C",
    "diff": 0,
    "points": 0
  },
  {
    "nom": "France",
    "primary_color": "#0000BA",
    "secondary_color": "#E35169",
    "classementFIFA": "2",
    "code": "fr",
    "hat": "1",
    "playoff": null,
    "diff": 0,
    "points": 0
  }
]